…
```
## 
## i Use `spec()` to retrieve the full column specification for this data.
## i Specify the column types or set `show_col_types = FALSE` to quiet this message.
```

```r
dat2 <- tempfile()
download.file("https://github.com/WJC-Data-Science/DTS350/raw/master/Dart_Expert_Dow_6month_anova/Dart_Expert_Dow_6month_anova.RDS", "dat2", mode = "wb")
read_rds("dat2")
```

```
## # A tibble: 300 x 3
##    contest_period             variable value
##    <chr>                      <chr>    <dbl>
##  1 January-June1990           PROS      12.7
##  2 February-July1990          PROS      26.4
##  3 March-August1990           PROS       2.5
##  4 April-September1990        PROS     -20  
##  5 May-October1990            PROS     -37.8
##  6 June-November1990          PROS     -33.3
##  7 July-December1990          PROS     -10.2
##  8 August1990-January1991     PROS     -20.3
##  9 September1990-February1991 PROS      38.9
## 10 October1990-March1991      PROS      20.2
## # ... with 290 more rows
```

```r
Dart2 <- read_rds("dat2")

dat3 <- tempfile()
download.file("https://github.com/WJC-Data-Science/DTS350/raw/master/Dart_Expert_Dow_6month_anova/Dart_Expert_Dow_6month_anova.dta", dat3, mode = "wb")
read_dta(dat3)
```

```
## # A tibble: 300 x 3
##    contest_period             variable value
##    <chr>                      <chr>    <dbl>
##  1 January-June1990           PROS      12.7
##  2 February-July1990          PROS      26.4
##  3 March-August1990           PROS       2.5
##  4 April-September1990        PROS     -20  
##  5 May-October1990            PROS     -37.8
##  6 June-November1990          PROS     -33.3
##  7 July-December1990          PROS     -10.2
##  8 August1990-January1991     PROS     -20.3
##  9 September1990-February1991 PROS      38.9
## 10 October1990-March1991      PROS      20.2
## # ... with 290 more rows
```

```r
Dart3 <- read_dta(dat3)

dat4 <- tempfile()
download.file("https://github.com/WJC-Data-Science/DTS350/raw/master/Dart_Expert_Dow_6month_anova/Dart_Expert_Dow_6month_anova.sav", "dat4", mode = "wb")
read_sav("dat4")
```

```
## # A tibble: 300 x 3
##    contest_period             variable value
##    <chr>                      <chr>    <dbl>
##  1 January-June1990           PROS      12.7
##  2 February-July1990          PROS      26.4
##  3 March-August1990           PROS       2.5
##  4 April-September1990        PROS     -20  
##  5 May-October1990            PROS     -37.8
##  6 June-November1990          PROS     -33.3
##  7 July-December1990          PROS     -10.2
##  8 August1990-January1991     PROS     -20.3
##  9 September1990-February1991 PROS      38.9
## 10 October1990-March1991      PROS      20.2
## # ... with 290 more rows
```

```r
Dart4 <- read_sav("dat4")

dat5 <- tempfile()
download.file("https://github.com/WJC-Data-Science/DTS350/raw/master/Dart_Expert_Dow_6month_anova/Dart_Expert_Dow_6month_anova.xlsx", "dat5", mode = "wb")
read_xlsx("dat5")
```

```
## # A tibble: 300 x 3
##    contest_period             variable value
##    <chr>                      <chr>    <dbl>
##  1 January-June1990           PROS      12.7
##  2 February-July1990          PROS      26.4
##  3 March-August1990           PROS       2.5
##  4 April-September1990        PROS     -20  
##  5 May-October1990            PROS     -37.8
##  6 June-November1990          PROS     -33.3
##  7 July-December1990          PROS     -10.2
##  8 August1990-January1991     PROS     -20.3
##  9 September1990-February1991 PROS      38.9
## 10 October1990-March1991      PROS      20.2
## # ... with 290 more rows
```
…
