…
HeightEd                           
```

```
## # A tibble: 1,192 x 6
##     earn height sex    ed                 age race    
##    <dbl>  <dbl> <chr>  <fct>            <dbl> <chr>   
##  1 50000   74.4 male   bachelors           45 white   
##  2 60000   65.5 female bachelors           58 white   
##  3 30000   63.6 female bachelors           29 white   
##  4 50000   63.1 female bachelors           91 other   
##  5 51000   63.4 female mastorsdoctorate    39 white   
##  6  9000   64.4 female associate           26 white   
##  7 29000   61.7 female highschoolgrad      49 white   
##  8 32000   72.7 male   mastorsdoctorate    46 white   
##  9  2000   72.0 male   associate           21 hispanic
## 10 27000   72.2 male   highschoolgrad      26 white   
## # ... with 1,182 more rows
```
…
