CaseStudy7
…
read_csv("dat1", skip = 2)

## Rows: 1191 Columns: 6

## -- Column specification --------------------------------------------------------
## Delimiter: ","
## chr (2): male, white
## dbl (4): 50000, 74.4244387818035, 16, 45

## 
## i Use `spec()` to retrieve the full column specification for this data.
## i Specify the column types or set `show_col_types = FALSE` to quiet this message.

## # A tibble: 1,191 x 6
##    `50000` `74.4244387818035` male    `16`  `45` white   
##      <dbl>              <dbl> <chr>  <dbl> <dbl> <chr>   
##  1   60000               65.5 female    16    58 white   
##  2   30000               63.6 female    16    29 white   
##  3   50000               63.1 female    16    91 other   
##  4   51000               63.4 female    17    39 white   
##  5    9000               64.4 female    15    26 white   
##  6   29000               61.7 female    12    49 white   
##  7   32000               72.7 male      17    46 white   
##  8    2000               72.0 male      15    21 hispanic
##  9   27000               72.2 male      12    26 white   
## 10    6530               69.5 male      16    65 white   
## # ... with 1,181 more rows
…
## -- Column specification --------------------------------------------------------
## Delimiter: ","
## chr (2): sex, race
## dbl (4): earn, height, ed, age

## 
## i Use `spec()` to retrieve the full column specification for this data.
## i Specify the column types or set `show_col_types = FALSE` to quiet this message.

dat2 <- tempfile()
download.file("https://github.com/WJC-Data-Science/DTS350/raw/master/Height.xlsx", "dat2", mode = "wb")
read_xlsx("dat2", skip = 2)

## # A tibble: 306 x 203
##     Code `Continent, Region, ~` `1800` `1801` `1802` `1803` `1804` `1805` `1806`
##    <dbl> <chr>                  <lgl>  <lgl>  <lgl>  <lgl>  <lgl>  <lgl>  <lgl> 
##  1   150 Europe                 NA     NA     NA     NA     NA     NA     NA    
##  2   155 Western Europe         NA     NA     NA     NA     NA     NA     NA    
##  3    40 Austria                NA     NA     NA     NA     NA     NA     NA    
##  4    56 Belgium                NA     NA     NA     NA     NA     NA     NA    
##  5   280 Federal Republic of G~ NA     NA     NA     NA     NA     NA     NA    
##  6   250 France                 NA     NA     NA     NA     NA     NA     NA    
##  7   278 German Democratic Rep~ NA     NA     NA     NA     NA     NA     NA    
##  8   276 Germany                NA     NA     NA     NA     NA     NA     NA    
##  9   438 Liechtenstein          NA     NA     NA     NA     NA     NA     NA    
## 10   442 Luxembourg             NA     NA     NA     NA     NA     NA     NA    
## # ... with 296 more rows, and 194 more variables: `1807` <lgl>, `1808` <lgl>,
## #   `1809` <lgl>, `1810` <dbl>, `1811` <lgl>, `1812` <lgl>, `1813` <lgl>,
## #   `1814` <lgl>, `1815` <lgl>, `1816` <lgl>, `1817` <lgl>, `1818` <lgl>,
## #   `1819` <lgl>, `1820` <dbl>, `1821` <lgl>, `1822` <lgl>, `1823` <lgl>,
## #   `1824` <lgl>, `1825` <lgl>, `1826` <lgl>, `1827` <lgl>, `1828` <lgl>,
## #   `1829` <lgl>, `1830` <dbl>, `1831` <lgl>, `1832` <lgl>, `1833` <lgl>,
## #   `1834` <lgl>, `1835` <lgl>, `1836` <lgl>, `1837` <lgl>, `1838` <lgl>, ...
…
Height_dbf <- read.dbf("dat3")

dat4 <- tempfile()
download.file("https://github.com/WJC-Data-Science/DTS350/raw/master/germanconscr.dta", "dat4", mode = "wb")
read_stata("dat4")

## # A tibble: 1,382 x 5
##    gebger      bdec height   age co   
##    <chr>      <dbl>  <dbl> <dbl> <chr>
##  1 brueckenau  1850   170.    21 de-se
##  2 brueckenau  1850   156.    21 de-se
##  3 brueckenau  1850   172.    21 de-se
##  4 brueckenau  1850   168.    21 de-se
##  5 brueckenau  1850   167.    21 de-se
##  6 brueckenau  1850   160.    21 de-se
##  7 brueckenau  1850   161.    21 de-se
##  8 brueckenau  1850   162.    21 de-se
##  9 brueckenau  1850   162.    21 de-se
## 10 brueckenau  1850   170.    21 de-se
## # ... with 1,372 more rows

German_conscript_stata <- read_stata("dat4")

dat5 <- tempfile()
download.file("https://github.com/WJC-Data-Science/DTS350/raw/master/germanprison.dta", "dat5", mode = "wb")
read_stata("dat5")

## # A tibble: 477 x 4
##      age  bdec co    height
##    <dbl> <dbl> <chr>  <dbl>
##  1    22  1850 de       156
##  2    26  1850 de       168
##  3    26  1850 de       161
##  4    25  1850 de       159
##  5    26  1850 de       175
##  6    24  1850 de       173
##  7    24  1850 de       173
##  8    24  1850 de       172
##  9    24  1850 de       161
## 10    21  1850 de       175
## # ... with 467 more rows

Bavarian_heights <- read_stata("dat5")

dat6 <- tempfile()
download.file("http://www.ssc.wisc.edu/nsfh/wave3/NSFH3%20Apr%202005%20release/main05022005.sav", "dat6", mode = "wb")
read_sav("dat6")

## # A tibble: 7,277 x 2,317
##    CASE  TYPE  CASEID CASENUM     DOBM  DOBY    RT1A1    RT1A2    RT1A3    RT1B1
##    <chr> <chr> <chr>    <dbl> <dbl+lb> <dbl> <dbl+lb> <dbl+lb> <dbl+lb> <dbl+lb>
##  1 00008 S     00008S       8 10 [OCT~    15  5       NA       NA        3      
##  2 00058 R     00058R      58  2 [FEB~    40  3        0 [NON~  1        2      
##  3 00058 S     00058S      58  2 [FEB~    40  0 [NON~ NA       NA        0 [NON~
##  4 00079 S     00079S      79 11 [NOV~    12  7       NA       NA        0 [NON~
##  5 00082 S     00082S      82  7 [JUL~    61  4       NA        1        4      
##  6 00120 R     00120R     120 10 [OCT~    54 14        0 [NON~  0 [NON~  7      
##  7 00120 S     00120S     120 11 [NOV~    54  1       10        2        0 [NON~
##  8 00133 R     00133R     133 10 [OCT~    51 18        0 [NON~  3       18      
##  9 00146 R     00146R     146  4 [APR~    52  1        0 [NON~ NA        2      
## 10 00146 S     00146S     146  4 [APR~    51  0 [NON~ 20       NA        0 [NON~
## # ... with 7,267 more rows, and 2,307 more variables: RT1B2 <dbl+lbl>,
## #   RT1B3 <dbl+lbl>, RT1C1 <dbl+lbl>, RT1C2 <dbl+lbl>, RT1C3 <dbl+lbl>,
## #   RT1D1 <dbl+lbl>, RT1D2 <dbl+lbl>, RT1D3 <dbl+lbl>, RT1E1 <dbl+lbl>,
## #   RT1E2 <dbl+lbl>, RT1E3 <dbl+lbl>, RT1F1 <dbl+lbl>, RT1F2 <dbl+lbl>,
## #   RT1F3 <dbl+lbl>, RT1G1 <dbl+lbl>, RT1G2 <dbl+lbl>, RT1G3 <dbl+lbl>,
## #   RT1H1 <dbl+lbl>, RT1H2 <dbl+lbl>, RT1H3 <dbl+lbl>, RT1I1 <dbl+lbl>,
## #   RT1I2 <dbl+lbl>, RT1I3 <dbl+lbl>, RT204 <dbl+lbl>, RE1 <dbl+lbl>, ...
…
tidying german male height dta file

german_conscript_tidy <- German_conscript_stata %>%  mutate(birth_year = bdec, 
         height.cm = height, 
         height.in = height.cm / 2.54,
         study_id = 'German male conscripts in Bavaria, 19th centery') %>%  
  select(birth_year, height.cm, height.in, study_id)
german_conscript_tidy

## # A tibble: 1,382 x 4
##    birth_year height.cm height.in study_id                                      
##         <dbl>     <dbl>     <dbl> <chr>                                         
##  1       1850      170.      66.8 German male conscripts in Bavaria, 19th cente~
##  2       1850      156.      61.6 German male conscripts in Bavaria, 19th cente~
##  3       1850      172.      67.9 German male conscripts in Bavaria, 19th cente~
##  4       1850      168.      66.2 German male conscripts in Bavaria, 19th cente~
##  5       1850      167.      65.6 German male conscripts in Bavaria, 19th cente~
##  6       1850      160.      63.1 German male conscripts in Bavaria, 19th cente~
##  7       1850      161.      63.2 German male conscripts in Bavaria, 19th cente~
##  8       1850      162.      63.9 German male conscripts in Bavaria, 19th cente~
##  9       1850      162.      63.7 German male conscripts in Bavaria, 19th cente~
## 10       1850      170.      67.0 German male conscripts in Bavaria, 19th cente~
## # ... with 1,372 more rows

tidying bavarian male height dta

bavarian_heights_tidy <- Bavarian_heights %>%
  mutate(birth_year = bdec,
         height.cm = height,
         height.in = height.cm / 2.54,
         study_id = 'Heights of bavarian male conscripts, 19th century') %>%
  select(birth_year, height.in, height.cm, study_id)

bavarian_heights_tidy

## # A tibble: 477 x 4
##    birth_year height.in height.cm study_id                                      
##         <dbl>     <dbl>     <dbl> <chr>                                         
##  1       1850      61.4       156 Heights of bavarian male conscripts, 19th cen~
##  2       1850      66.1       168 Heights of bavarian male conscripts, 19th cen~
##  3       1850      63.4       161 Heights of bavarian male conscripts, 19th cen~
##  4       1850      62.6       159 Heights of bavarian male conscripts, 19th cen~
##  5       1850      68.9       175 Heights of bavarian male conscripts, 19th cen~
##  6       1850      68.1       173 Heights of bavarian male conscripts, 19th cen~
##  7       1850      68.1       173 Heights of bavarian male conscripts, 19th cen~
##  8       1850      67.7       172 Heights of bavarian male conscripts, 19th cen~
##  9       1850      63.4       161 Heights of bavarian male conscripts, 19th cen~
## 10       1850      68.9       175 Heights of bavarian male conscripts, 19th cen~
## # ... with 467 more rows

tidying wisco file

wisco_tidy <- Wisco %>%  
  mutate(birth_year = DOBY + 1900, height.in = RT216F*12 + RT216I, height.cm = height.in * 2.54, study_id = 'National Survey (Wisconsin), 19th century') %>%  
  select(birth_year, height.in, height.cm, study_id)
wisco_tidy

## # A tibble: 7,277 x 4
##    birth_year height.in height.cm study_id                                 
##         <dbl>     <dbl>     <dbl> <chr>                                    
##  1       1915        95      241. National Survey (Wisconsin), 19th century
##  2       1940        60      152. National Survey (Wisconsin), 19th century
##  3       1940        67      170. National Survey (Wisconsin), 19th century
##  4       1912        65      165. National Survey (Wisconsin), 19th century
##  5       1961        66      168. National Survey (Wisconsin), 19th century
##  6       1954        62      157. National Survey (Wisconsin), 19th century
##  7       1954        71      180. National Survey (Wisconsin), 19th century
##  8       1951        64      163. National Survey (Wisconsin), 19th century
##  9       1952        67      170. National Survey (Wisconsin), 19th century
## 10       1951        69      175. National Survey (Wisconsin), 19th century
## # ... with 7,267 more rows
…
