…
```r
iris_data <- as_tibble(iris)
```


```r
arr_SL <- arrange(iris_data, (Sepal.Length))
arr_SL
```

```
## # A tibble: 150 x 5
##    Sepal.Length Sepal.Width Petal.Length Petal.Width Species
##           <dbl>       <dbl>        <dbl>       <dbl> <fct>  
##  1          4.3         3            1.1         0.1 setosa 
##  2          4.4         2.9          1.4         0.2 setosa 
##  3          4.4         3            1.3         0.2 setosa 
##  4          4.4         3.2          1.3         0.2 setosa 
##  5          4.5         2.3          1.3         0.3 setosa 
##  6          4.6         3.1          1.5         0.2 setosa 
##  7          4.6         3.4          1.4         0.3 setosa 
##  8          4.6         3.6          1           0.2 setosa 
##  9          4.6         3.2          1.4         0.2 setosa 
## 10          4.7         3.2          1.3         0.2 setosa 
## # ... with 140 more rows
```


```r
testdat <- select(iris_data, Species, Petal.Width)
testdat
```

```
## # A tibble: 150 x 2
##    Species Petal.Width
##    <fct>         <dbl>
##  1 setosa          0.2
##  2 setosa          0.2
##  3 setosa          0.2
##  4 setosa          0.2
##  5 setosa          0.2
##  6 setosa          0.4
##  7 setosa          0.3
##  8 setosa          0.2
##  9 setosa          0.2
## 10 setosa          0.1
## # ... with 140 more rows
```
…
```r
select_iris <- select(iris_data, Species, Sepal.Width, Petal.Width, Sepal.Length, Petal.Length)
iris_min <- filter(select_iris, Sepal.Width >= 3, Petal.Width != 2.5)
iris_min
```

```
## # A tibble: 90 x 5
##    Species Sepal.Width Petal.Width Sepal.Length Petal.Length
##    <fct>         <dbl>       <dbl>        <dbl>        <dbl>
##  1 setosa          3.5         0.2          5.1          1.4
##  2 setosa          3           0.2          4.9          1.4
##  3 setosa          3.2         0.2          4.7          1.3
##  4 setosa          3.1         0.2          4.6          1.5
##  5 setosa          3.6         0.2          5            1.4
##  6 setosa          3.9         0.4          5.4          1.7
##  7 setosa          3.4         0.3          4.6          1.4
##  8 setosa          3.4         0.2          5            1.5
##  9 setosa          3.1         0.1          4.9          1.5
## 10 setosa          3.7         0.2          5.4          1.5
## # ... with 80 more rows
```


```r
iris_size <- mutate(iris_data, size = case_when(Sepal.Length < 5 ~ "Small",
                                                Sepal.Length >= 5 & Sepal.Length < 6.5 ~ "Medium",
                                                Sepal.Length >= 6.5 ~ "Large"))

iris_size
```

```
## # A tibble: 150 x 6
##    Sepal.Length Sepal.Width Petal.Length Petal.Width Species size  
##           <dbl>       <dbl>        <dbl>       <dbl> <fct>   <chr> 
##  1          5.1         3.5          1.4         0.2 setosa  Medium
##  2          4.9         3            1.4         0.2 setosa  Small 
##  3          4.7         3.2          1.3         0.2 setosa  Small 
##  4          4.6         3.1          1.5         0.2 setosa  Small 
##  5          5           3.6          1.4         0.2 setosa  Medium
##  6          5.4         3.9          1.7         0.4 setosa  Medium
##  7          4.6         3.4          1.4         0.3 setosa  Small 
##  8          5           3.4          1.5         0.2 setosa  Medium
##  9          4.4         2.9          1.4         0.2 setosa  Small 
## 10          4.9         3.1          1.5         0.1 setosa  Small 
## # ... with 140 more rows
```
…
