…
```r
largest <- largest_cities %>%
   slice(1:1)

largest
```

```
## Simple feature collection with 49 features and 12 fields
## Geometry type: POINT
## Dimension:     XY
## Bounding box:  xmin: -122.65 ymin: 29.78047 xmax: -70.25536 ymax: 47.6205
## Geodetic CRS:  WGS 84
## # A tibble: 49 x 13
## # Groups:   state_name [49]
##    city   state~1 state~2 county count~3 stplf~4 name_~5 city_~6 popul~7 place~8
##    <chr>  <chr>   <chr>   <chr>  <chr>   <chr>   <chr>   <chr>   <chr>   <chr>  
##  1 Birmi~ Alabama AL      JEFFE~ Jeffer~ 0107000 Birmin~ US Cen~ US Cen~ Incorp~
##  2 Phoen~ Arizona AZ      MARIC~ Marico~ 0455000 Phoeni~ US Cen~ US Cen~ Incorp~
##  3 Littl~ Arkans~ AR      PULAS~ Pulaski 0541000 Little~ US Cen~ US Cen~ Incorp~
##  4 Los A~ Califo~ CA      LOS A~ Los An~ 0644000 Los An~ US Cen~ US Cen~ Incorp~
##  5 Denver Colora~ CO      ARAPA~ Arapah~ 0820000 Denver~ US Cen~ US Cen~ Incorp~
##  6 Bridg~ Connec~ CT      FAIRF~ Fairfi~ 0908000 Bridge~ US Cen~ US Cen~ Incorp~
##  7 Wilmi~ Delawa~ DE      NEW C~ New Ca~ 1077580 Wilmin~ US Cen~ US Cen~ Incorp~
##  8 Washi~ Distri~ DC      DIST ~ Dist C~ 1150000 Washin~ US Cen~ US Cen~ Incorp~
##  9 Jacks~ Florida FL      DUVAL  Duval   1235000 Jackso~ US Cen~ US Cen~ Incorp~
## 10 Atlan~ Georgia GA      multi~ Multip~ 1304000 Atlant~ US Cen~ US Cen~ Incorp~
## # ... with 39 more rows, 3 more variables: year <int>, population <int>,
## #   geometry <POINT [°]>, and abbreviated variable names 1: state_name,
## #   2: state_abbr, 3: county_name, 4: stplfips_2010, 5: name_2010,
## #   6: city_source, 7: population_source, 8: place_type
```
…
