…
```
## Warning: package 'timetk' was built under R version 4.1.3
```


```r
start <- today() - years(1)
end <- today()
CVGW_prices <- tq_get("CVGW", get = "stock.prices", from = start, to = end)
CVGW_prices
```

```
## # A tibble: 251 x 8
##    symbol date        open  high   low close volume adjusted
##    <chr>  <date>     <dbl> <dbl> <dbl> <dbl>  <dbl>    <dbl>
##  1 CVGW   2021-11-29  42.7  42.7  40.8  41.3 124300     41.0
##  2 CVGW   2021-11-30  41.6  41.6  40.4  40.5 232900     40.2
##  3 CVGW   2021-12-01  41.1  41.6  39.6  39.7 166300     39.3
##  4 CVGW   2021-12-02  39.9  41.0  39.6  40.7 104300     40.3
##  5 CVGW   2021-12-03  41.3  41.4  40.2  40.3 206100     40.0
##  6 CVGW   2021-12-06  40.9  42.8  40.4  41.9 130800     41.6
##  7 CVGW   2021-12-07  42.2  42.2  39.4  39.5 152600     39.2
##  8 CVGW   2021-12-08  39.9  40.3  39    39.7 131400     39.3
##  9 CVGW   2021-12-09  39.6  40.3  39.6  39.8 104500     39.5
## 10 CVGW   2021-12-10  40.0  40.9  39.7  40.1 118600     39.8
## # ... with 241 more rows
```

```r
CVGW_monthly <- CVGW_prices %>%
  tq_transmute(adjusted, mutate_fun = monthlyReturn)

avo_prices <- tq_get("AVO", get = "stock.prices", from = start, to = end)
avo_prices
```

```
## # A tibble: 251 x 8
##    symbol date        open  high   low close volume adjusted
##    <chr>  <date>     <dbl> <dbl> <dbl> <dbl>  <dbl>    <dbl>
##  1 AVO    2021-11-29  19.1  19.1  18.4  18.4  79200     18.4
##  2 AVO    2021-11-30  18.3  18.3  17.4  17.7 227300     17.7
##  3 AVO    2021-12-01  18.2  19.1  17.3  17.4 120900     17.4
##  4 AVO    2021-12-02  17.5  18.4  17.4  17.7  69400     17.7
##  5 AVO    2021-12-03  17.7  18.1  17.5  18.0 102500     18.0
##  6 AVO    2021-12-06  18.3  18.6  18    18.3 119200     18.3
##  7 AVO    2021-12-07  18.5  19.2  17.8  18.9  73200     18.9
##  8 AVO    2021-12-08  19.0  19.0  18.1  18.7  51600     18.7
##  9 AVO    2021-12-09  18.6  18.8  18.5  18.7  51700     18.7
## 10 AVO    2021-12-10  18.5  19    18.3  18.4  86500     18.4
## # ... with 241 more rows
```
…
