…
## pulling price performance for my stocks
TARGET

```r
start <- today() - years(1)
end <- today()
target_prices <- tq_get(stock1, get = "stock.prices", from = start, to = end)
target_prices
```

```
## # A tibble: 252 x 8
##    symbol date        open  high   low close  volume adjusted
##    <chr>  <date>     <dbl> <dbl> <dbl> <dbl>   <dbl>    <dbl>
##  1 TGT    2021-11-01  262.  262.  257.  258. 1718100     253.
##  2 TGT    2021-11-02  259.  261.  259.  260. 2228000     256.
##  3 TGT    2021-11-03  259.  261.  257.  260. 2397300     256.
##  4 TGT    2021-11-04  261.  263.  259.  260. 3031000     256.
##  5 TGT    2021-11-05  261   261.  253.  254. 4060300     250.
##  6 TGT    2021-11-08  253.  256.  252.  253. 2523100     249.
##  7 TGT    2021-11-09  253.  255.  253.  255. 2346800     251.
##  8 TGT    2021-11-10  254.  256   253.  254. 2093100     249.
##  9 TGT    2021-11-11  254.  257.  254.  256. 2199400     251.
## 10 TGT    2021-11-12  257.  262.  257.  260. 2497600     255.
## # ... with 242 more rows
```

```r
target_monthly <- target_prices %>%
  tq_transmute(adjusted, mutate_fun = monthlyReturn)
```

ABERCROMBIE AND FITCH

```r
anf_prices <- tq_get(stock2, get = "stock.prices", from = start, to = end)
anf_prices
```

```
## # A tibble: 252 x 8
##    symbol date        open  high   low close  volume adjusted
##    <chr>  <date>     <dbl> <dbl> <dbl> <dbl>   <dbl>    <dbl>
##  1 ANF    2021-11-01  40.1  41.7  39.9  41.4 1446700     41.4
##  2 ANF    2021-11-02  41.6  42.5  41.2  42.4 1530000     42.4
##  3 ANF    2021-11-03  42.4  46.3  42.2  46.3 2739900     46.3
##  4 ANF    2021-11-04  46.1  47.1  45.9  47.0 1597800     47.0
##  5 ANF    2021-11-05  47.9  49.0  45.8  46.2 1772700     46.2
##  6 ANF    2021-11-08  46.1  46.3  45.2  45.4  878900     45.4
##  7 ANF    2021-11-09  45.3  46.5  44.9  46.1  890800     46.1
##  8 ANF    2021-11-10  45.7  46.8  44.9  45.0  959000     45.0
##  9 ANF    2021-11-11  45.5  46.1  45.3  45.3  662600     45.3
## 10 ANF    2021-11-12  45.6  45.9  45.1  45.7  682800     45.7
## # ... with 242 more rows
```
…
```r
aeo_prices <- tq_get(stock3, get = "stock.prices", from = start, to = end)
aeo_prices
```

```
## # A tibble: 252 x 8
##    symbol date        open  high   low close  volume adjusted
##    <chr>  <date>     <dbl> <dbl> <dbl> <dbl>   <dbl>    <dbl>
##  1 AEO    2021-11-01  23.9  25.4  23.9  25.3 6268300     24.5
##  2 AEO    2021-11-02  25.8  26.1  24.8  25.1 4211400     24.3
##  3 AEO    2021-11-03  25.0  26.9  25.0  26.5 5622200     25.7
##  4 AEO    2021-11-04  26.7  26.8  25.9  26.5 3909700     25.7
##  5 AEO    2021-11-05  27.3  28.2  26.3  26.6 3756700     25.7
##  6 AEO    2021-11-08  26.5  26.8  26.1  26.3 2751500     25.4
##  7 AEO    2021-11-09  26.2  27.1  26.2  26.8 2802800     26.0
##  8 AEO    2021-11-10  26.7  26.9  26.0  26.0 2607000     25.2
##  9 AEO    2021-11-11  26.2  26.6  25.9  26.4 2150500     25.6
## 10 AEO    2021-11-12  26.7  26.9  26.4  26.9 2643600     26.0
## # ... with 242 more rows
```
…
```r
nike_prices <- tq_get(stock4, get = "stock.prices", from = start, to = end)
nike_prices
```

```
## # A tibble: 252 x 8
##    symbol date        open  high   low close  volume adjusted
##    <chr>  <date>     <dbl> <dbl> <dbl> <dbl>   <dbl>    <dbl>
##  1 NKE    2021-11-01  168.  169.  166.  166. 3610800     165.
##  2 NKE    2021-11-02  167.  168.  166.  168. 5038000     166.
##  3 NKE    2021-11-03  169   173.  169.  172. 7176700     171.
##  4 NKE    2021-11-04  172.  176.  172   175. 5460100     174.
##  5 NKE    2021-11-05  176.  179.  176.  178. 5892200     176.
##  6 NKE    2021-11-08  176.  177.  170.  172. 8301100     170.
##  7 NKE    2021-11-09  171.  174.  171.  174. 4343000     172.
##  8 NKE    2021-11-10  171.  172.  168.  168. 8185200     167.
##  9 NKE    2021-11-11  170.  170.  167.  167. 4994900     165.
## 10 NKE    2021-11-12  168.  170.  167.  169. 5126300     168.
## # ... with 242 more rows
```
…
```r
lulu_prices <- tq_get(stock5, get = "stock.prices", from = start, to = end)
lulu_prices
```

```
## # A tibble: 252 x 8
##    symbol date        open  high   low close volume adjusted
##    <chr>  <date>     <dbl> <dbl> <dbl> <dbl>  <dbl>    <dbl>
##  1 LULU   2021-11-01  468   469.  456.  459. 788700     459.
##  2 LULU   2021-11-02  462.  470.  461.  465. 676700     465.
##  3 LULU   2021-11-03  466.  469.  462.  467. 561800     467.
##  4 LULU   2021-11-04  470.  479.  469.  474. 676700     474.
##  5 LULU   2021-11-05  474.  477.  466.  468. 817600     468.
##  6 LULU   2021-11-08  472.  472.  457.  466. 736300     466.
##  7 LULU   2021-11-09  467.  472.  465.  470. 613600     470.
##  8 LULU   2021-11-10  465.  468.  454.  457. 647500     457.
##  9 LULU   2021-11-11  462.  463.  453.  453  507000     453 
## 10 LULU   2021-11-12  457.  457.  451.  453. 721600     453.
## # ... with 242 more rows
```
…
```r
ua_prices <- tq_get(stock6, get = "stock.prices", from = start, to = end)
ua_prices
```

```
## # A tibble: 252 x 8
##    symbol date        open  high   low close   volume adjusted
##    <chr>  <date>     <dbl> <dbl> <dbl> <dbl>    <dbl>    <dbl>
##  1 UA     2021-11-01  19.0  19.3  18.9  19.0  2668608     19.0
##  2 UA     2021-11-02  22.0  22.5  21.6  21.7 11697342     21.7
##  3 UA     2021-11-03  22.1  23.0  22.0  22.5  6569675     22.5
##  4 UA     2021-11-04  22.5  23.0  21.9  22.1  3077441     22.1
##  5 UA     2021-11-05  22.4  22.5  21.1  21.3  4037886     21.3
##  6 UA     2021-11-08  21.2  21.4  21.0  21.1  2005041     21.1
##  7 UA     2021-11-09  21.1  21.4  20.9  21.1  1550806     21.1
##  8 UA     2021-11-10  21.0  21.6  20.8  21.1  1735214     21.1
##  9 UA     2021-11-11  21.1  21.5  21.0  21.1  1145421     21.1
## 10 UA     2021-11-12  21.3  21.7  21.2  21.3  1268713     21.3
## # ... with 242 more rows
```
…
```r
library(timetk)
```

```
## Warning: package 'timetk' was built under R version 4.1.3
```

```r
my_stocks <- tq_get(c(stock1, stock2, stock3), get = "stock.prices", from = start, to = end)
my_stocks
```

```
## # A tibble: 756 x 8
##    symbol date        open  high   low close  volume adjusted
##    <chr>  <date>     <dbl> <dbl> <dbl> <dbl>   <dbl>    <dbl>
##  1 TGT    2021-11-01  262.  262.  257.  258. 1718100     253.
##  2 TGT    2021-11-02  259.  261.  259.  260. 2228000     256.
##  3 TGT    2021-11-03  259.  261.  257.  260. 2397300     256.
##  4 TGT    2021-11-04  261.  263.  259.  260. 3031000     256.
##  5 TGT    2021-11-05  261   261.  253.  254. 4060300     250.
##  6 TGT    2021-11-08  253.  256.  252.  253. 2523100     249.
##  7 TGT    2021-11-09  253.  255.  253.  255. 2346800     251.
##  8 TGT    2021-11-10  254.  256   253.  254. 2093100     249.
##  9 TGT    2021-11-11  254.  257.  254.  256. 2199400     251.
## 10 TGT    2021-11-12  257.  262.  257.  260. 2497600     255.
## # ... with 746 more rows
```

```r
friend_stocks <- tq_get(c(stock4, stock5, stock6), get = "stock.prices", from = start, to = end)
friend_stocks
```

```
## # A tibble: 756 x 8
##    symbol date        open  high   low close  volume adjusted
##    <chr>  <date>     <dbl> <dbl> <dbl> <dbl>   <dbl>    <dbl>
##  1 NKE    2021-11-01  168.  169.  166.  166. 3610800     165.
##  2 NKE    2021-11-02  167.  168.  166.  168. 5038000     166.
##  3 NKE    2021-11-03  169   173.  169.  172. 7176700     171.
##  4 NKE    2021-11-04  172.  176.  172   175. 5460100     174.
##  5 NKE    2021-11-05  176.  179.  176.  178. 5892200     176.
##  6 NKE    2021-11-08  176.  177.  170.  172. 8301100     170.
##  7 NKE    2021-11-09  171.  174.  171.  174. 4343000     172.
##  8 NKE    2021-11-10  171.  172.  168.  168. 8185200     167.
##  9 NKE    2021-11-11  170.  170.  167.  167. 4994900     165.
## 10 NKE    2021-11-12  168.  170.  167.  169. 5126300     168.
## # ... with 746 more rows
```
…
