…
```
## `summarise()` has grouped output by 'continent'. You can override using the `.groups` argument.
```

```r
means
```

```
## # A tibble: 60 x 4
## # Groups:   continent [5]
##    continent  year wmean population
##    <fct>     <int> <dbl>      <dbl>
##  1 Africa     1952 1311.  237640501
##  2 Africa     1957 1445.  264837738
##  3 Africa     1962 1541.  296516865
##  4 Africa     1967 1775.  335289489
##  5 Africa     1972 2063.  379879541
##  6 Africa     1977 2245.  433061021
##  7 Africa     1982 2295.  499348587
##  8 Africa     1987 2181.  574834110
##  9 Africa     1992 2072.  659081517
## 10 Africa     1997 2099.  743832984
## # ... with 50 more rows
```
…
