…
## FIPS setup stuff

```r
counties <- us_counties()

FIPS <- permits %>%
  mutate(state = as.character(state), stateFIPS = str_pad(state, 2,pad = "0")) %>%
  mutate(county = as.character(county), countyFIPS = str_pad(county, 3,pad = "0"))
FIPS
```

```
## # A tibble: 327,422 x 10
##     ...1 state StateAbbr county countyname   varia~1  year value state~2 count~3
##    <dbl> <chr> <chr>     <chr>  <chr>        <chr>   <dbl> <dbl> <chr>   <chr>  
##  1     1 1     AL        1      Autauga Cou~ All Pe~  2010   191 01      001    
##  2     2 1     AL        1      Autauga Cou~ All Pe~  2009   110 01      001    
##  3     3 1     AL        1      Autauga Cou~ All Pe~  2008   173 01      001    
##  4     4 1     AL        1      Autauga Cou~ All Pe~  2007   260 01      001    
##  5     5 1     AL        1      Autauga Cou~ All Pe~  2006   347 01      001    
##  6     6 1     AL        1      Autauga Cou~ All Pe~  2005   313 01      001    
##  7     7 1     AL        1      Autauga Cou~ All Pe~  2004   367 01      001    
##  8     8 1     AL        1      Autauga Cou~ All Pe~  2003   283 01      001    
##  9     9 1     AL        1      Autauga Cou~ All Pe~  2002   276 01      001    
## 10    10 1     AL        1      Autauga Cou~ All Pe~  2001   400 01      001    
## # ... with 327,412 more rows, and abbreviated variable names 1: variable,
## #   2: stateFIPS, 3: countyFIPS
```
…
