…
ranking counties and getting number one county in PA

```r
PA_latlong$quartile <- ntile(PA_latlong$value, 4)
PA_latlong
```

```
## # A tibble: 9,015 x 14
##      ...1 state StateAbbr county countynam~1 varia~2  year value count~3 count~4
##     <dbl> <dbl> <chr>      <dbl> <chr>       <chr>   <dbl> <dbl> <chr>   <chr>  
##  1 236890    42 PA            17 Bucks Coun~ All Pe~  1986  5362 Clearf~ 17     
##  2 237727    42 PA            29 Chester Co~ All Pe~  1986  4928 Fulton  29     
##  3 236921    42 PA            17 Bucks Coun~ Single~  1986  4794 Clearf~ 17     
##  4 236889    42 PA            17 Bucks Coun~ All Pe~  1987  4712 Clearf~ 17     
##  5 241947    42 PA            91 Montgomery~ All Pe~  1985  4501 <NA>    <NA>   
##  6 237758    42 PA            29 Chester Co~ Single~  1986  4375 Fulton  29     
##  7 236888    42 PA            17 Bucks Coun~ All Pe~  1988  4287 Clearf~ 17     
##  8 237726    42 PA            29 Chester Co~ All Pe~  1987  4189 Fulton  29     
##  9 241946    42 PA            91 Montgomery~ All Pe~  1986  4121 <NA>    <NA>   
## 10 241944    42 PA            91 Montgomery~ All Pe~  1988  3898 <NA>    <NA>   
## # ... with 9,005 more rows, 4 more variables: longitude <dbl>, latitude <dbl>,
## #   georeferenced_lat_and_long <chr>, quartile <int>, and abbreviated variable
## #   names 1: countyname.x, 2: variable, 3: countyname.y, 4: county_code_text
```
…
