…
```r
dest_avgs <- flights %>%
  group_by(dest) %>%
  summarize(avg_delay = mean(arr_delay, na.rm = TRUE))

dest_avgs
```

```
## # A tibble: 105 x 2
##    dest  avg_delay
##    <chr>     <dbl>
##  1 ABQ        4.38
##  2 ACK        4.85
##  3 ALB       14.4 
##  4 ANC       -2.5 
##  5 ATL       11.3 
##  6 AUS        6.02
##  7 AVL        8.00
##  8 BDL        7.05
##  9 BGR        8.03
## 10 BHM       16.9 
## # ... with 95 more rows
```
…
